{
  "project_info": {
    "project_number": "793470866613",
    "project_id": "transmusicales-7446c",
    "storage_bucket": "transmusicales-7446c.appspot.com"
  },
  "client": [
    {
      "client_info": {
        "mobilesdk_app_id": "1:793470866613:android:e70de7cfd3ecdc2e051afc",
        "android_client_info": {
          "package_name": "com.transmusicales"
        }
      },
      "oauth_client": [
        {
          "client_id": "793470866613-8ti1fuovh0skm3fkr67eobf1im2g2m9q.apps.googleusercontent.com",
          "client_type": 3
        }
      ],
      "api_key": [
        {
          "current_key": "AIzaSyAgXu1S7INsKVSscPF3YjGsoDDwDMyxfMc"
        }
      ],
      "services": {
        "appinvite_service": {
          "other_platform_oauth_client": [
            {
              "client_id": "793470866613-8ti1fuovh0skm3fkr67eobf1im2g2m9q.apps.googleusercontent.com",
              "client_type": 3
            }
          ]
        }
      }
    }
  ],
  "configuration_version": "1"
}